; NON-PLATED HOLES START AT T1
; THROUGH (PLATED) HOLES START AT T100
M48
INCH
T100C0.030000
T101C0.040000
T102C0.038000
T103C0.015748
%
T100
X016089Y004334
X011089Y007334
X016089Y009334
X016089Y006334
X016089Y008334
X016089Y011334
X011089Y005334
X011089Y004334
X016089Y005334
X011089Y008334
X011089Y010334
X011089Y006334
X016089Y010334
X011089Y009334
X011089Y011334
X016089Y007334
T101
X019961Y010768
X019961Y008168
X011961Y001068
X019961Y018768
X000961Y013168
X000961Y007168
X019961Y006168
X010961Y002068
X019961Y005168
X000961Y011168
X003018Y017940
X000961Y006168
X000963Y016168
X000961Y002168
X000961Y014168
X009961Y002068
X019961Y016768
X019961Y019768
X003018Y019940
X019961Y009168
X003018Y022192
X000961Y009168
X011961Y002068
X000963Y015168
X000961Y003168
X019961Y015768
X000961Y004168
X019961Y003168
X000961Y010168
X019961Y012768
X019961Y007168
X019961Y014768
X000961Y005168
X019961Y004168
X010961Y001068
X019961Y013768
X019961Y017768
X009961Y001068
X003018Y024192
X000961Y012168
X019961Y011768
X019961Y002168
T102
X016578Y012657
X007192Y013732
X017703Y008263
X017703Y009263
X014578Y012657
X017703Y006263
X017703Y007263
X007192Y015732
X015578Y012657
X007192Y014732
X007192Y012732
T103
X014784Y011091
X012384Y010611
T00
M30
