G04 MADE WITH FRITZING*
G04 WWW.FRITZING.ORG*
G04 DOUBLE SIDED*
G04 HOLES PLATED*
G04 CONTOUR ON CENTER OF CONTOUR VECTOR*
%ASAXBY*%
%FSLAX23Y23*%
%MOIN*%
%OFA0B0*%
%SFA1.0B1.0*%
%ADD10C,0.060000*%
%ADD11C,0.078000*%
%ADD12C,0.070000*%
%ADD13C,0.080000*%
%ADD14C,0.039370*%
%ADD15R,0.078000X0.078000*%
%ADD16R,0.070000X0.070000*%
%ADD17R,0.080000X0.080000*%
%ADD18C,0.024000*%
%LNCOPPER1*%
G90*
G70*
G54D10*
X1996Y1777D03*
X96Y917D03*
X1996Y317D03*
X1096Y107D03*
X1996Y1377D03*
X96Y417D03*
X1996Y717D03*
X96Y1317D03*
X1196Y107D03*
X996Y107D03*
X1996Y1177D03*
X1996Y1577D03*
X96Y617D03*
X96Y217D03*
X1996Y517D03*
X1996Y917D03*
X96Y1117D03*
X1196Y207D03*
X1096Y207D03*
X996Y207D03*
X1996Y1077D03*
X1996Y1277D03*
X1996Y1477D03*
X1996Y1677D03*
X1996Y1977D03*
X1996Y1877D03*
X96Y717D03*
X96Y517D03*
X96Y317D03*
X1996Y217D03*
X1996Y417D03*
X1996Y617D03*
X1996Y817D03*
X96Y1417D03*
X96Y1217D03*
X96Y1517D03*
X96Y1617D03*
X96Y1017D03*
G54D11*
X1458Y1266D03*
X1558Y1266D03*
X1658Y1266D03*
G54D12*
X1109Y1133D03*
X1609Y1133D03*
X1109Y1033D03*
X1609Y1033D03*
X1109Y933D03*
X1609Y933D03*
X1109Y833D03*
X1609Y833D03*
X1109Y733D03*
X1609Y733D03*
X1109Y633D03*
X1609Y633D03*
X1109Y533D03*
X1609Y533D03*
X1109Y433D03*
X1609Y433D03*
G54D13*
X302Y1794D03*
X302Y1994D03*
X302Y2219D03*
X302Y2419D03*
G54D11*
X1770Y626D03*
X1770Y726D03*
X1770Y826D03*
X1770Y926D03*
X719Y1273D03*
X719Y1373D03*
X719Y1473D03*
X719Y1573D03*
G54D14*
X1238Y1061D03*
X1478Y1109D03*
G54D15*
X1458Y1266D03*
G54D16*
X1609Y433D03*
X1609Y1033D03*
G54D17*
X302Y1794D03*
X302Y2219D03*
G54D15*
X1770Y626D03*
X719Y1273D03*
G54D18*
X1740Y728D02*
X1635Y732D01*
D02*
X1740Y928D02*
X1635Y932D01*
D02*
X1740Y628D02*
X1635Y632D01*
D02*
X1740Y828D02*
X1635Y832D01*
D02*
X1966Y1185D02*
X1687Y1258D01*
D02*
X1965Y413D02*
X1550Y365D01*
D02*
X1550Y365D02*
X1135Y429D01*
D02*
X333Y1792D02*
X974Y1745D01*
D02*
X974Y1745D02*
X1382Y1349D01*
D02*
X1382Y1349D02*
X1382Y1181D01*
D02*
X1382Y1181D02*
X1583Y1139D01*
D02*
X2017Y694D02*
X2054Y653D01*
D02*
X2054Y653D02*
X2063Y172D01*
D02*
X2063Y172D02*
X1838Y149D01*
D02*
X1838Y149D02*
X1046Y365D01*
D02*
X1046Y365D02*
X1046Y1181D01*
D02*
X1046Y1181D02*
X745Y1358D01*
D02*
X1109Y1007D02*
X1109Y960D01*
D02*
X1220Y1057D02*
X1135Y1039D01*
D02*
X1587Y547D02*
X1131Y820D01*
D02*
X1495Y1100D02*
X1586Y1047D01*
D02*
X1632Y446D02*
X1838Y557D01*
D02*
X1838Y557D02*
X1838Y989D01*
D02*
X1838Y989D02*
X1635Y1029D01*
D02*
X1971Y1659D02*
X1478Y1301D01*
D02*
X1478Y1301D02*
X1473Y1292D01*
D02*
X690Y1565D02*
X518Y1517D01*
D02*
X518Y1517D02*
X119Y1138D01*
D02*
X276Y1978D02*
X230Y1949D01*
D02*
X230Y1949D02*
X230Y1733D01*
D02*
X230Y1733D02*
X518Y1517D01*
G04 End of Copper1*
M02*